CN=G_SCSM_CS_OP,OU=GRUPOS
CN=G_FORTINET_RLT_INTERNET_DTI,OU=FORTINET
CN=G_SEDE_ACESSO_INTERNET_DTI_RESTRITO,OU=Contas e grupos de Serviços
CN=G_SEDE_ACESSO_VPN_SSL,OU=VPN SSL
CN=G_SEDE_FTP_HELPDESK_R,OU=FTP
CN=G_SEDE_APLIC_FTP,OU=Migracao Novell
CN=G_SEDE_ACESSO_INTERNET_GRUPO_3,OU=Acesso_a_internet
CN=G_HELPDESK_FTP_SEDE_CONTROLES_WRITE,OU=CENTRAL DE SERVICOS
CN=G_HELPDESK_FTP_REMOTO_WRITE,OU=CENTRAL DE SERVICOS
CN=G_HELPDESK_FTP_SEDE_WRITE,OU=CENTRAL DE SERVICOS
CN=G_HELPDESK_FTP_SEDE_READ,OU=CENTRAL DE SERVICOS
CN=G_HELPDESK_FTP_REMOTO_READ,OU=CENTRAL DE SERVICOS
CN=G_HELPDESK_PAULISTA,OU=CENTRAL DE SERVICOS
CN=G_SEDE_APLIC_HELPDESK,OU=APLICACOES
CN=G_ADM_ACESSO_TROCA_SENHA,OU=Contas e grupos de Serviços
CN=G_SEDE_PUBLICO,OU=APLICACOES
